…
<!-------------------------- Start your work below ---------------------------->

``` r
year_and_original_price <- reshape_steam_games %>%
    drop_na(release_year) %>%
    group_by(release_year, original_price) %>%
    summarize(count = n(), .groups = "drop")

print(year_and_original_price)
```

    ## # A tibble: 1,286 × 3
    ##    release_year original_price count
    ##    <chr>                 <dbl> <int>
    ##  1 1981                   0        1
    ##  2 1983                   9.99     1
    ##  3 1984                   1.99     1
    ##  4 1984                   9.99     1
    ##  5 1985                  55.9      1
    ##  6 1986                   7.99     1
    ##  7 1987                   1.02     1
    ##  8 1987                   5.99     1
    ##  9 1987                   6.99     2
    ## 10 1988                   2.99     1
    ## # … with 1,276 more rows

``` r
final <- year_and_original_price %>%
    group_by(release_year) %>%
    drop_na(original_price) %>%
    drop_na(count) %>%
    summarize(mean_of_price_each_year = sum(original_price * count) / sum(count))

print(final)
```

    ## # A tibble: 41 × 2
    ##    release_year mean_of_price_each_year
    ##    <chr>                          <dbl>
    ##  1 1981                            0   
    ##  2 1983                            9.99
    ##  3 1984                            5.99
    ##  4 1985                           55.9 
    ##  5 1986                            7.99
    ##  6 1987                            5.25
    ##  7 1988                            6.39
    ##  8 1989                           12.0 
    ##  9 1990                           19.6 
    ## 10 1991                           10.7 
    ## # … with 31 more rows

``` r
final$release_year <- as.integer(final$release_year)

final <- filter(final, release_year > 1981 & release_year <= 2021)

final
```

    ## # A tibble: 38 × 2
    ##    release_year mean_of_price_each_year
    ##           <int>                   <dbl>
    ##  1         1983                    9.99
    ##  2         1984                    5.99
    ##  3         1985                   55.9 
    ##  4         1986                    7.99
    ##  5         1987                    5.25
    ##  6         1988                    6.39
    ##  7         1989                   12.0 
    ##  8         1990                   19.6 
    ##  9         1991                   10.7 
    ## 10         1992                    6.99
    ## # … with 28 more rows
…
