…
*Hint:* This is one of those times when you should think about the
cleanliness of your analysis. I added a single code chunk for you below,
but do you want to use more than one? Would you like to write more
comments outside of the code chunk?

<!-------------------------- Start your work below ---------------------------->

``` r
### EXPLORE HERE ###
# steam_games
steam_games
```

    ## # A tibble: 40,833 × 21
    ##       id url         types name  desc_…¹ recen…² all_r…³ relea…⁴ devel…⁵ publi…⁶
    ##    <dbl> <chr>       <chr> <chr> <chr>   <chr>   <chr>   <chr>   <chr>   <chr>  
    ##  1     1 https://st… app   DOOM  Now in… Very P… Very P… May 12… id Sof… Bethes…
    ##  2     2 https://st… app   PLAY… PLAYER… Mixed,… Mixed,… Dec 21… PUBG C… PUBG C…
    ##  3     3 https://st… app   BATT… Take c… Mixed,… Mostly… Apr 24… Harebr… Parado…
    ##  4     4 https://st… app   DayZ  The po… Mixed,… Mixed,… Dec 13… Bohemi… Bohemi…
    ##  5     5 https://st… app   EVE … EVE On… Mixed,… Mostly… May 6,… CCP     CCP,CCP
    ##  6     6 https://st… bund… Gran… Grand … NaN     NaN     NaN     Rockst… Rockst…
    ##  7     7 https://st… app   Devi… The ul… Very P… Very P… Mar 7,… CAPCOM… CAPCOM…
    ##  8     8 https://st… app   Huma… Human:… Very P… Very P… Jul 22… No Bra… Curve …
    ##  9     9 https://st… app   They… They A… Very P… Very P… Dec 12… Numant… Numant…
    ## 10    10 https://st… app   Warh… In a w… <NA>    Mixed,… May 31… Eko So… Bigben…
    ## # … with 40,823 more rows, 11 more variables: popular_tags <chr>,
    ## #   game_details <chr>, languages <chr>, achievements <dbl>, genre <chr>,
    ## #   game_description <chr>, mature_content <chr>, minimum_requirements <chr>,
    ## #   recommended_requirements <chr>, original_price <dbl>, discount_price <dbl>,
    ## #   and abbreviated variable names ¹​desc_snippet, ²​recent_reviews,
    ## #   ³​all_reviews, ⁴​release_date, ⁵​developer, ⁶​publisher
…
``` r
# cancer_sample
cancer_sample
```

    ## # A tibble: 569 × 32
    ##          ID diagnosis radius_m…¹ textu…² perim…³ area_…⁴ smoot…⁵ compa…⁶ conca…⁷
    ##       <dbl> <chr>          <dbl>   <dbl>   <dbl>   <dbl>   <dbl>   <dbl>   <dbl>
    ##  1   842302 M               18.0    10.4   123.    1001   0.118   0.278   0.300 
    ##  2   842517 M               20.6    17.8   133.    1326   0.0847  0.0786  0.0869
    ##  3 84300903 M               19.7    21.2   130     1203   0.110   0.160   0.197 
    ##  4 84348301 M               11.4    20.4    77.6    386.  0.142   0.284   0.241 
    ##  5 84358402 M               20.3    14.3   135.    1297   0.100   0.133   0.198 
    ##  6   843786 M               12.4    15.7    82.6    477.  0.128   0.17    0.158 
    ##  7   844359 M               18.2    20.0   120.    1040   0.0946  0.109   0.113 
    ##  8 84458202 M               13.7    20.8    90.2    578.  0.119   0.164   0.0937
    ##  9   844981 M               13      21.8    87.5    520.  0.127   0.193   0.186 
    ## 10 84501001 M               12.5    24.0    84.0    476.  0.119   0.240   0.227 
    ## # … with 559 more rows, 23 more variables: concave_points_mean <dbl>,
    ## #   symmetry_mean <dbl>, fractal_dimension_mean <dbl>, radius_se <dbl>,
    ## #   texture_se <dbl>, perimeter_se <dbl>, area_se <dbl>, smoothness_se <dbl>,
    ## #   compactness_se <dbl>, concavity_se <dbl>, concave_points_se <dbl>,
    ## #   symmetry_se <dbl>, fractal_dimension_se <dbl>, radius_worst <dbl>,
    ## #   texture_worst <dbl>, perimeter_worst <dbl>, area_worst <dbl>,
    ## #   smoothness_worst <dbl>, compactness_worst <dbl>, concavity_worst <dbl>, …
…
``` r
# flow_sample
flow_sample
```

    ## # A tibble: 218 × 7
    ##    station_id  year extreme_type month   day  flow sym  
    ##    <chr>      <dbl> <chr>        <dbl> <dbl> <dbl> <chr>
    ##  1 05BB001     1909 maximum          7     7   314 <NA> 
    ##  2 05BB001     1910 maximum          6    12   230 <NA> 
    ##  3 05BB001     1911 maximum          6    14   264 <NA> 
    ##  4 05BB001     1912 maximum          8    25   174 <NA> 
    ##  5 05BB001     1913 maximum          6    11   232 <NA> 
    ##  6 05BB001     1914 maximum          6    18   214 <NA> 
    ##  7 05BB001     1915 maximum          6    27   236 <NA> 
    ##  8 05BB001     1916 maximum          6    20   309 <NA> 
    ##  9 05BB001     1917 maximum          6    17   174 <NA> 
    ## 10 05BB001     1918 maximum          6    15   345 <NA> 
    ## # … with 208 more rows
…
``` r
# building_permits
building_permits
```

    ## # A tibble: 20,680 × 14
    ##    permit_n…¹ issue_date proje…² type_…³ address proje…⁴ build…⁵ build…⁶ appli…⁷
    ##    <chr>      <date>       <dbl> <chr>   <chr>   <chr>   <chr>   <chr>   <chr>  
    ##  1 BP-2016-0… 2017-02-01  0      Salvag… 4378 W… <NA>    <NA>     <NA>   Raffae…
    ##  2 BU468090   2017-02-01  0      New Bu… 1111 R… <NA>    <NA>     <NA>   MAX KE…
    ##  3 DB-2016-0… 2017-02-01  3.5 e4 Additi… 3732 W… <NA>    <NA>     <NA>   Peter …
    ##  4 DB-2017-0… 2017-02-01  1.5 e4 Additi… 88 W P… <NA>    Mercur… "88 W … Aaron …
    ##  5 DB452250   2017-02-01  1.81e5 New Bu… 492 E … <NA>    082016… "3559 … John H…
    ##  6 BP-2016-0… 2017-02-02  0      Salvag… 3332 W… <NA>    <NA>     <NA>   Shalin…
    ##  7 BP-2016-0… 2017-02-02  1.5 e4 Demoli… 2873 W… <NA>    <NA>     <NA>   Mike C…
    ##  8 BP-2016-0… 2017-02-02  0      Salvag… 3579 E… <NA>    <NA>     <NA>   Ricci …
    ##  9 BP-2016-0… 2017-02-02  6.5 e7 New Bu… 620 CA… <NA>    <NA>     <NA>   David …
    ## 10 BP-2016-0… 2017-02-02  2.5 e4 Additi… 1868 W… <NA>    RenBui… "1868 … Daniel…
    ## # … with 20,670 more rows, 5 more variables: applicant_address <chr>,
    ## #   property_use <chr>, specific_use_category <chr>, year <dbl>, bi_id <dbl>,
    ## #   and abbreviated variable names ¹​permit_number, ²​project_value,
    ## #   ³​type_of_work, ⁴​project_description, ⁵​building_contractor,
    ## #   ⁶​building_contractor_address, ⁷​applicant
…
``` r
steam_games_prices <- select(steam_games, name, original_price, discount_price) # select columns containing prices
print(steam_games_prices) # take a look of the subset
```

    ## # A tibble: 40,833 × 3
    ##    name                                       original_price discount_price
    ##    <chr>                                               <dbl>          <dbl>
    ##  1 DOOM                                                 20.0           15.0
    ##  2 PLAYERUNKNOWN'S BATTLEGROUNDS                        30.0           NA  
    ##  3 BATTLETECH                                           40.0           NA  
    ##  4 DayZ                                                 45.0           NA  
    ##  5 EVE Online                                            0             NA  
    ##  6 Grand Theft Auto V: Premium Online Edition           NA             35.2
    ##  7 Devil May Cry 5                                      60.0           70.4
    ##  8 Human: Fall Flat                                     15.0           17.6
    ##  9 They Are Billions                                    30.0           NA  
    ## 10 Warhammer: Chaosbane                                 50.0           NA  
    ## # … with 40,823 more rows

``` r
steam_games_discount_rate <- steam_games_prices %>%
                                mutate(discount_rate = (original_price - discount_price) / original_price) # calculate the discount rate based on the price difference
print(steam_games_discount_rate) # print out the result containing the new column
```

    ## # A tibble: 40,833 × 4
    ##    name                                       original_price discount_…¹ disco…²
    ##    <chr>                                               <dbl>       <dbl>   <dbl>
    ##  1 DOOM                                                 20.0        15.0   0.250
    ##  2 PLAYERUNKNOWN'S BATTLEGROUNDS                        30.0        NA    NA    
    ##  3 BATTLETECH                                           40.0        NA    NA    
    ##  4 DayZ                                                 45.0        NA    NA    
    ##  5 EVE Online                                            0          NA    NA    
    ##  6 Grand Theft Auto V: Premium Online Edition           NA          35.2  NA    
    ##  7 Devil May Cry 5                                      60.0        70.4  -0.174
    ##  8 Human: Fall Flat                                     15.0        17.6  -0.173
    ##  9 They Are Billions                                    30.0        NA    NA    
    ## 10 Warhammer: Chaosbane                                 50.0        NA    NA    
    ## # … with 40,823 more rows, and abbreviated variable names ¹​discount_price,
    ## #   ²​discount_rate
…
``` r
# 5.  Filter observations in your data according to your own criteria. Think of what you'd like to explore - again, if this was the `titanic` dataset, I may want to narrow my search down to passengers born in a particular year...
game_languages <- steam_games %>%
                    select(name, languages) %>%
                    filter(grepl("Chinese", languages))
print(game_languages) # I am selecting all the games that support my home language (in my case: Chinese) to analyze and I observed that 9359 out of 40833 games in this dataset supports Chinese as one of the game languages.
```

    ## # A tibble: 9,359 × 2
    ##    name                                       languages                         
    ##    <chr>                                      <chr>                             
    ##  1 DOOM                                       English,French,Italian,German,Spa…
    ##  2 PLAYERUNKNOWN'S BATTLEGROUNDS              English,Korean,Simplified Chinese…
    ##  3 DayZ                                       English,French,Italian,German,Spa…
    ##  4 Grand Theft Auto V: Premium Online Edition English, French, Italian, German,…
    ##  5 Devil May Cry 5                            English,French,Italian,German,Spa…
    ##  6 Human: Fall Flat                           English,French,German,Spanish - S…
    ##  7 They Are Billions                          English,Spanish - Spain,French,Ge…
    ##  8 Warhammer: Chaosbane                       English,French,Italian,German,Spa…
    ##  9 For The King                               English,French,Italian,German,Spa…
    ## 10 Danganronpa V3: Killing Harmony            English,French,Japanese,Simplifie…
    ## # … with 9,349 more rows
…
``` r
steam_games$year <- as.integer(sub('.*,\\s*', '', steam_games$release_date))
```

    ## Warning: NAs introduced by coercion

``` r
games_per_year <- as_tibble(count(steam_games, year))
print(games_per_year)
```

    ## # A tibble: 46 × 2
    ##     year     n
    ##    <int> <int>
    ##  1     0  3176
    ##  2  1981     1
    ##  3  1983     1
    ##  4  1984     2
    ##  5  1985     1
    ##  6  1986     1
    ##  7  1987     4
    ##  8  1988     5
    ##  9  1989     6
    ## 10  1990     9
    ## # … with 36 more rows
…
*Research question 2:* What’s the average price of games published in
each year? **Summarizing:** Create a categorical variable with 3 or more
groups from an existing numerical variable. You can use this new
variable in the other tasks!

``` r
average_price_each_year <- steam_games %>%
                                group_by(year) %>%
                                summarise(original_price_mean = mean(original_price, na.rm = TRUE))
print(average_price_each_year)
```

    ## # A tibble: 46 × 2
    ##     year original_price_mean
    ##    <int>               <dbl>
    ##  1     0               35.5 
    ##  2  1981                0   
    ##  3  1983                9.99
    ##  4  1984                5.99
    ##  5  1985               55.9 
    ##  6  1986                7.99
    ##  7  1987                5.25
    ##  8  1988                6.39
    ##  9  1989               12.0 
    ## 10  1990               19.6 
    ## # … with 36 more rows
…
*Research question 3:* Is there any relationship between the game genre
and the price of the game? **Summarizing:** Create a categorical
variable with 3 or more groups from an existing numerical variable. You
can use this new variable in the other tasks!

``` r
games_with_first_genre <- steam_games %>%
                            mutate(first_genre = gsub(",.*$", "", genre)) %>%
                            select(name, first_genre, year, original_price)
games_subset <- filter(games_with_first_genre, first_genre %in% c("Action", "Adventure", "Racing", "RPG"))
print(games_subset)
```

    ## # A tibble: 24,545 × 4
    ##    name                                       first_genre  year original_price
    ##    <chr>                                      <chr>       <int>          <dbl>
    ##  1 DOOM                                       Action       2016           20.0
    ##  2 PLAYERUNKNOWN'S BATTLEGROUNDS              Action       2017           30.0
    ##  3 BATTLETECH                                 Action       2018           40.0
    ##  4 DayZ                                       Action       2018           45.0
    ##  5 EVE Online                                 Action       2003            0  
    ##  6 Grand Theft Auto V: Premium Online Edition Action          0           NA  
    ##  7 Devil May Cry 5                            Action       2019           60.0
    ##  8 Human: Fall Flat                           Adventure    2016           15.0
    ##  9 Warhammer: Chaosbane                       Action       2019           50.0
    ## 10 For The King                               Adventure    2018           20.0
    ## # … with 24,535 more rows
…
*Research question 4:* Is there any relationship between the reviews and
the price of the game? **Summarizing:** Create a categorical variable
with 3 or more groups from an existing numerical variable. You can use
this new variable in the other tasks!

``` r
level_of_review <- steam_games %>%
                        mutate(review_level = gsub(",.*$", "", all_reviews)) %>%
                        select(name, review_level, original_price)
print(level_of_review)
```

    ## # A tibble: 40,833 × 3
    ##    name                                       review_level    original_price
    ##    <chr>                                      <chr>                    <dbl>
    ##  1 DOOM                                       Very Positive             20.0
    ##  2 PLAYERUNKNOWN'S BATTLEGROUNDS              Mixed                     30.0
    ##  3 BATTLETECH                                 Mostly Positive           40.0
    ##  4 DayZ                                       Mixed                     45.0
    ##  5 EVE Online                                 Mostly Positive            0  
    ##  6 Grand Theft Auto V: Premium Online Edition NaN                       NA  
    ##  7 Devil May Cry 5                            Very Positive             60.0
    ##  8 Human: Fall Flat                           Very Positive             15.0
    ##  9 They Are Billions                          Very Positive             30.0
    ## 10 Warhammer: Chaosbane                       Mixed                     50.0
    ## # … with 40,823 more rows
…
